Shared SNP Analysis
…
a_hdl_cad <- rename(a_hdl_cad,ensembl_gene_id=ensembl_gene_stable_id) %>% inner_join(gene_df) 

Joining, by = "ensembl_gene_id"

a_hdl_cad <- a_hdl_cad %>% arrange(desc(prob_z1))

# go_ct <- group_by(a_hdl_cad,namespace_1003,name_1006,go_id) %>% summarise(n_genes=n_distinct(hgnc_symbol),n_tot=n(),mean_prob=mean(unique(prob_z1))) %>% ungroup() %>% arrange(desc(n_genes),desc(n_tot))
# 
# filter(go_ct,namespace_1003=='biological_process',n_genes>10) %>% inner_join(a_hdl_cad) %>% ggplot(aes(x=mean_prob,y=prob_z1,group=mean_prob))+geom_boxplot()

What genes do top signals come from?

distinct(a_hdl_cad,name,beta_hat_1,seb1,beta_hat_2,seb2,prob_z1,hgnc_symbol) %>% arrange(desc(prob_z1))

# A tibble: 541 x 7
   name       beta_hat_1   seb1 beta_hat_2   seb2 prob_z1 hgnc_symbol
   <chr>           <dbl>  <dbl>      <dbl>  <dbl>   <dbl> <chr>      
 1 rs6589565     -0.0854 0.0091     0.120  0.0258   0.843 BUD13      
 2 rs2954031     -0.0426 0.0049     0.0545 0.0140   0.667 ""         
 3 rs16963520     0.0719 0.0071    -0.0471 0.0200   0.662 SLC12A3    
 4 rs445925      -0.0983 0.0212     0.1    0.0429   0.653 ""         
 5 rs12740374    -0.0329 0.006      0.103  0.0171   0.644 CELSR2     
 6 rs863750       0.0318 0.0051    -0.0484 0.0151   0.641 ""         
 7 rs4765127     -0.0329 0.0051     0.0426 0.0146   0.639 ""         
 8 rs3924313      0.0352 0.0052    -0.0402 0.0148   0.637 SCARB1     
 9 rs12979104     0.0407 0.0094    -0.0927 0.0257   0.633 KANK2      
10 rs16842        0.0307 0.0055    -0.0514 0.0155   0.632 ""         
# ... with 531 more rows

distinct(a_hdl_cad,name,beta_hat_1,seb1,beta_hat_2,seb2,prob_z1,hgnc_symbol,distance_to_transcript) %>% arrange(desc(prob_z1))

# A tibble: 541 x 8
   name  beta_hat_1   seb1 beta_hat_2   seb2 prob_z1 distance_to_tra…
   <chr>      <dbl>  <dbl>      <dbl>  <dbl>   <dbl>            <int>
 1 rs65…    -0.0854 0.0091     0.120  0.0258   0.843             3466
 2 rs29…    -0.0426 0.0049     0.0545 0.0140   0.667            12552
 3 rs16…     0.0719 0.0071    -0.0471 0.0200   0.662            10754
 4 rs44…    -0.0983 0.0212     0.1    0.0429   0.653             2585
 5 rs12…    -0.0329 0.006      0.103  0.0171   0.644              782
 6 rs86…     0.0318 0.0051    -0.0484 0.0151   0.641            46953
 7 rs47…    -0.0329 0.0051     0.0426 0.0146   0.639             1676
 8 rs39…     0.0352 0.0052    -0.0402 0.0148   0.637            20088
 9 rs12…     0.0407 0.0094    -0.0927 0.0257   0.633             7842
10 rs16…     0.0307 0.0055    -0.0514 0.0155   0.632             7024
# ... with 531 more rows, and 1 more variable: hgnc_symbol <chr>
…
nak_genes <- distinct(a_hdl_cad,name,beta_hat_1,seb1,beta_hat_2,seb2,prob_z1,hgnc_symbol,distance_to_transcript,name_1006) %>% arrange(desc(prob_z1)) %>% 
  mutate(nak=str_detect(name_1006,'sodium')|str_detect(name_1006,'potassium')) %>%
  group_by(hgnc_symbol) %>% 
  summarise(nak=any(nak)) %>%
  ungroup()

distinct(a_hdl_cad,name,beta_hat_1,seb1,beta_hat_2,seb2,prob_z1,hgnc_symbol) %>%
  group_by(hgnc_symbol) %>%
  summarise(mean_pz=mean(prob_z1),n_s=n(),min_pz=min(prob_z1),max_pz=max(prob_z1)) %>% 
  arrange(desc(max_pz),desc(n_s)) %>%
  filter(n_s>1,hgnc_symbol!="")

# A tibble: 42 x 5
   hgnc_symbol mean_pz   n_s min_pz max_pz
   <chr>         <dbl> <int>  <dbl>  <dbl>
 1 SLC12A3       0.492     4 0.375   0.662
 2 SCARB1        0.395     5 0.197   0.637
 3 C5orf67       0.469     3 0.359   0.618
 4 LIPC          0.352     7 0.0523  0.604
 5 GALNT2        0.477     2 0.364   0.589
 6 LIPG          0.516     2 0.450   0.582
 7 APOB          0.558     2 0.543   0.572
 8 DNAH10        0.521     2 0.490   0.552
 9 AFF1          0.451     2 0.363   0.538
10 CMIP          0.452     2 0.385   0.520
# ... with 32 more rows

distinct(a_hdl_cad,name,beta_hat_1,seb1,beta_hat_2,seb2,prob_z1,hgnc_symbol) %>%
  group_by(hgnc_symbol) %>%
  summarise(mean_pz=mean(prob_z1),n_s=n(),min_pz=min(prob_z1),max_px=max(prob_z1)) %>% 
  arrange(desc(n_s),desc(mean_pz)) %>% 
  filter(n_s>1)

# A tibble: 43 x 5
   hgnc_symbol mean_pz   n_s min_pz max_px
   <chr>         <dbl> <int>  <dbl>  <dbl>
 1 ""            0.380    84 0.101   0.667
 2 ALDH1A2       0.225    11 0.0542  0.376
 3 NLRC5         0.342     9 0.166   0.519
 4 ABCA1         0.218     9 0.0887  0.381
 5 LIPC          0.352     7 0.0523  0.604
 6 SCARB1        0.395     5 0.197   0.637
 7 MYO5B         0.267     5 0.155   0.420
 8 SLC12A3       0.492     4 0.375   0.662
 9 C5orf67       0.469     3 0.359   0.618
10 CSGALNACT1    0.394     3 0.363   0.445
# ... with 33 more rows
…
